<define-tag pagetitle>DLA-940-1 sane-backends</define-tag>
<define-tag report_date>2017-5-13</define-tag>
<define-tag secrefs>CVE-2017-6318 Bug##854804</define-tag>
<define-tag packages>sane-backends</define-tag>
<define-tag isvulnerable>yes</define-tag>
<define-tag fixed>yes</define-tag>
<define-tag fixed-section>no</define-tag>

#use wml::debian::security

