<define-tag pagetitle>DLA-784-1 gcc-mozilla</define-tag>
<define-tag report_date>2017-1-14</define-tag>
<define-tag packages>gcc-mozilla</define-tag>
<define-tag isvulnerable>yes</define-tag>
<define-tag fixed>yes</define-tag>
<define-tag fixed-section>no</define-tag>

#use wml::debian::security

