<define-tag pagetitle>DLA-947-1 icu</define-tag>
<define-tag report_date>2017-5-20</define-tag>
<define-tag secrefs>CVE-2017-7867 CVE-2017-7868</define-tag>
<define-tag packages>icu</define-tag>
<define-tag isvulnerable>yes</define-tag>
<define-tag fixed>yes</define-tag>
<define-tag fixed-section>no</define-tag>

#use wml::debian::security

