<define-tag pagetitle>DLA-861-1 r-base</define-tag>
<define-tag report_date>2017-3-17</define-tag>
<define-tag secrefs>CVE-2016-8714 Bug##857466</define-tag>
<define-tag packages>r-base</define-tag>
<define-tag isvulnerable>yes</define-tag>
<define-tag fixed>yes</define-tag>
<define-tag fixed-section>no</define-tag>

#use wml::debian::security

