<define-tag pagetitle>DLA-1441-1 sympa</define-tag>
<define-tag report_date>2018-7-24</define-tag>
<define-tag secrefs>CVE-2018-1000550</define-tag>
<define-tag packages>sympa</define-tag>
<define-tag isvulnerable>yes</define-tag>
<define-tag fixed>yes</define-tag>
<define-tag fixed-section>no</define-tag>

#use wml::debian::security

