<define-tag pagetitle>DLA-1306-1 vips</define-tag>
<define-tag report_date>2018-3-11</define-tag>
<define-tag secrefs>CVE-2018-7998 Bug##892589</define-tag>
<define-tag packages>vips</define-tag>
<define-tag isvulnerable>yes</define-tag>
<define-tag fixed>yes</define-tag>
<define-tag fixed-section>no</define-tag>

#use wml::debian::security

