<define-tag pagetitle>DLA-736-1 gst-plugins-bad0.10</define-tag>
<define-tag report_date>2016-12-8</define-tag>
<define-tag secrefs>CVE-2016-9809</define-tag>
<define-tag packages>gst-plugins-bad0.10</define-tag>
<define-tag isvulnerable>yes</define-tag>
<define-tag fixed>yes</define-tag>
<define-tag fixed-section>no</define-tag>

#use wml::debian::security

