<define-tag pagetitle>DLA-446-1 poppler</define-tag>
<define-tag report_date>2016-4-29</define-tag>
<define-tag secrefs>CVE-2015-8868 Bug#822578</define-tag>
<define-tag packages>poppler</define-tag>
<define-tag isvulnerable>yes</define-tag>
<define-tag fixed>yes</define-tag>
<define-tag fixed-section>no</define-tag>

#use wml::debian::security

